{
  "images" : [
    {
      "idiom" : "universal",
      "scale" : "1x"
    },
    {
      "idiom" : "universal",
      "filename" : "^ABB08205B31D2C9311698019E1284F92749C5FEDE485FE8C3B^pimgpsh_fullsize_distr (1).png",
      "scale" : "2x"
    },
    {
      "idiom" : "universal",
      "filename" : "^ABB08205B31D2C9311698019E1284F92749C5FEDE485FE8C3B^pimgpsh_fullsize_distr (1)-1.png",
      "scale" : "3x"
    }
  ],
  "info" : {
    "version" : 1,
    "author" : "xcode"
  }
}